 6

      C         0.000000         0.701676          0.000000
      C         0.000000        -0.701676          0.000000
      H         0.924088         1.251624          0.000000
      H        -0.924088         1.251624          0.000000
      H         0.924088        -1.251624          0.000000
      H        -0.924088        -1.251624          0.000000
