12
template.xyz
C          0.70168       -0.00000        2.50211
C         -0.70168        0.00000        2.50211
C          0.66901       -0.00000       -2.50211
C         -0.66901        0.00000       -2.50211
H          1.25162        0.92409        2.50211
H          1.25162       -0.92409        2.50211
H         -1.25162        0.92409        2.50211
H         -1.25162       -0.92409        2.50211
H          1.23454        0.91542       -2.50211
H          1.23454       -0.91542       -2.50211
H         -1.23454        0.91542       -2.50211
H         -1.23454       -0.91542       -2.50211
