\relax 
\@writefile{toc}{\contentsline {section}{\numberline {1}General aim and target}{1}}
\@writefile{toc}{\contentsline {subsection}{\numberline {1.1}Functionalities}{1}}
\@writefile{toc}{\contentsline {subsubsection}{\numberline {1.1.1}Coordinate systems:}{1}}
\citation{hen99,hey05,kae08}
\citation{woo03}
\citation{pow71}
\citation{bof94}
\citation{brooks57,luusj73}
\citation{holland75,goldberg89,haupth98}
\@writefile{toc}{\contentsline {subsubsection}{\numberline {1.1.2}Combinations of coordinates (images):}{2}}
\@writefile{toc}{\contentsline {subsubsection}{\numberline {1.1.3}Optimisers:}{2}}
\@writefile{toc}{\contentsline {subsubsection}{\numberline {1.1.4}Line search algorithms:}{2}}
\@writefile{toc}{\contentsline {subsubsection}{\numberline {1.1.5}A global task manager:}{3}}
\@writefile{toc}{\contentsline {subsubsection}{\numberline {1.1.6}Parallelisation:}{3}}
\@writefile{toc}{\contentsline {subsubsection}{\numberline {1.1.7}Restart mechanism:}{4}}
\@writefile{toc}{\contentsline {subsubsection}{\numberline {1.1.8}Compilation:}{4}}
\@writefile{toc}{\contentsline {subsection}{\numberline {1.2}Time Line}{4}}
\@writefile{toc}{\contentsline {section}{\numberline {2}Quality Assurance Plan}{4}}
\@writefile{toc}{\contentsline {section}{\numberline {3}Software Design Plan}{4}}
\newlabel{sec:interface}{{3.1}{5}}
\@writefile{toc}{\contentsline {subsection}{\numberline {3.1}Interface to the Calling Program }{5}}
\@writefile{toc}{\contentsline {subsection}{\numberline {3.2}Program Units and Their Contents:}{7}}
\@writefile{toc}{\contentsline {subsubsection}{\numberline {3.2.1}Modules}{7}}
\@writefile{toc}{\contentsline {subsubsection}{\numberline {3.2.2}Main Units:}{7}}
\@writefile{toc}{\contentsline {subsubsection}{\numberline {3.2.3}Other details:}{7}}
\@writefile{toc}{\contentsline {subsection}{\numberline {3.3}Program Documentation}{7}}
\citation{mul79}
\@writefile{toc}{\contentsline {section}{\numberline {4}Code fragments obtained from external sources}{8}}
\@writefile{toc}{\contentsline {section}{\numberline {5}Test Plan}{8}}
\citation{bil00a}
\citation{bil00a}
\citation{bil00a}
\citation{bil00a}
\@writefile{toc}{\contentsline {section}{\numberline {6}Method documentation}{9}}
\@writefile{toc}{\contentsline {subsection}{\numberline {6.1}Weights}{9}}
\@writefile{toc}{\contentsline {section}{\numberline {7}Documentation of the Input Options -- User Documentation}{9}}
\@writefile{toc}{\contentsline {paragraph}{Print level (Variable \texttt  {printl}):}{9}}
\@writefile{toc}{\contentsline {paragraph}{Type of coordinate system (Variable \texttt  {icoord}):}{9}}
\citation{hen00a}
\citation{hen99,hey05}
\citation{pol69}
\citation{pol69}
\citation{liu89,noc80}
\@writefile{toc}{\contentsline {paragraph}{Multistate calculations (Variable \texttt  {imultistate}):}{10}}
\citation{cer81,sim83,ban85,bak86}
\citation{brooks57,luusj73}
\citation{holland75,goldberg89,haupth98}
\@writefile{toc}{\contentsline {paragraph}{Type of optimisation algorithm (Variable \texttt  {iopt}):}{11}}
\@writefile{toc}{\contentsline {paragraph}{Type of line search or trust radius (Variable \texttt  {iline}):}{11}}
\@writefile{toc}{\contentsline {paragraph}{Type of initial Hessian (Variable \texttt  {inithessian}):}{11}}
\citation{pow71}
\citation{bof94}
\@writefile{toc}{\contentsline {paragraph}{Hessian update mechanism (Variable \texttt  {update}):}{12}}
\@writefile{toc}{\contentsline {paragraph}{Fragment and frozen atom information (Variable \texttt  {spec}):}{12}}
\@writefile{toc}{\contentsline {subsubsection}{\numberline {7.0.1}Restarting}{12}}
\bibcite{hen99}{1}
\bibcite{hey05}{2}
\bibcite{kae08}{3}
\bibcite{woo03}{4}
\bibcite{pow71}{5}
\bibcite{bof94}{6}
\bibcite{brooks57}{7}
\bibcite{luusj73}{8}
\bibcite{holland75}{9}
\bibcite{goldberg89}{10}
\@writefile{toc}{\contentsline {section}{\numberline {8}Collection ...}{13}}
\bibcite{haupth98}{11}
\bibcite{mul79}{12}
\bibcite{bil00a}{13}
\bibcite{hen00a}{14}
\bibcite{pol69}{15}
\bibcite{liu89}{16}
\bibcite{noc80}{17}
\bibcite{cer81}{18}
\bibcite{sim83}{19}
\bibcite{ban85}{20}
\bibcite{bak86}{21}
