\relax 
\citation{r1,r2,r3}
\citation{r3,r4}
\citation{r5,r6,r7}
\citation{r8,r9}
\citation{r10}
\citation{r11}
\citation{r12}
\@writefile{toc}{\contentsline {section}{\numberline {\uppercase {i}}Introduction}{1}}
\@writefile{toc}{\contentsline {section}{\numberline {\uppercase {ii}}Closed-Shell Theory}{2}}
\citation{r13}
\citation{r14}
\citation{r15}
\@writefile{toc}{\contentsline {section}{\numberline {\uppercase {iii}}Open-Shell Theory}{4}}
\@writefile{toc}{\contentsline {section}{\numberline {\uppercase {iv}}Open-Shell Energy Coefficients}{6}}
\citation{r16}
\citation{r17}
\bibcite{r1}{1}
\bibcite{r2}{2}
\bibcite{r3}{3}
\bibcite{r4}{4}
\bibcite{r5}{5}
\bibcite{r6}{6}
\bibcite{r7}{7}
\bibcite{r8}{8}
\bibcite{r9}{9}
\bibcite{r10}{10}
\bibcite{r11}{11}
\bibcite{r12}{12}
\bibcite{r13}{13}
\bibcite{r14}{14}
\citation{r4}
\bibcite{r15}{15}
\bibcite{r16}{16}
\bibcite{r17}{17}
\@writefile{lot}{\contentsline {table}{\numberline {1}{\ignorespaces Open Intrashell Energy Coefficient Formulas}}{12}}
\@writefile{lot}{\contentsline {table}{\numberline {2}{\ignorespaces Open Intrashell Energy Coefficients for Atoms}}{13}}
\@writefile{lot}{\contentsline {table}{\numberline {3}{\ignorespaces Open Intrashell Energy Coefficients for Linear Molecules}}{14}}
\@writefile{lot}{\contentsline {table}{\numberline {4}{\ignorespaces Open Intershell Energy Coefficients for Atoms}}{15}}
\@writefile{lot}{\contentsline {table}{\numberline {5}{\ignorespaces Open Intershell Energy Coefficients for Linear Molecules}}{16}}
\@writefile{lot}{\contentsline {table}{\numberline {6}{\ignorespaces Open Intershell Energy Coefficients for $D_{\infty h}$ Molecules}}{17}}
\@writefile{lot}{\contentsline {table}{\numberline {7}{\ignorespaces Open Intrashell Energy Coefficients for Octahedral and Tetrahedral Molecules}}{18}}
\@writefile{lot}{\contentsline {table}{\numberline {8}{\ignorespaces Open Intershell Energy Coefficients for Octahedral and Tetrahedral Weak-Field States}}{19}}
