License is going to expire in 61 days on Friday April 20th, 2012
Everything is fine. Going to run MOLCAS!
                                                                                                   
                                              ^^^^^            M O L C A S                         
                                             ^^^^^^^           version 7.4 patchlevel 045           
                               ^^^^^         ^^^^^^^                                               
                              ^^^^^^^        ^^^ ^^^                                               
                              ^^^^^^^       ^^^^ ^^^                                               
                              ^^^ ^^^       ^^^^ ^^^                                               
                              ^^^ ^^^^      ^^^  ^^^                                               
                              ^^^  ^^ ^^^^^  ^^  ^^^^                                              
                             ^^^^      ^^^^   ^   ^^^                                              
                             ^   ^^^   ^^^^   ^^^^  ^                                              
                            ^   ^^^^    ^^    ^^^^   ^                                             
                        ^^^^^   ^^^^^   ^^   ^^^^^   ^^^^^                                         
                     ^^^^^^^^   ^^^^^        ^^^^^    ^^^^^^^                                      
                 ^^^^^^^^^^^    ^^^^^^      ^^^^^^^   ^^^^^^^^^^^                                  
               ^^^^^^^^^^^^^   ^^^^^^^^^^^^^^^^^^^^   ^^^^^^^^^^^^^                                
               ^^^^^^^^^^^^^   ^^^^             ^^^   ^^^      ^^^^                                
               ^^^^^^^^^^^^^                          ^^^      ^^^^                                
               ^^^^^^^^^^^^^       ^^^^^^^^^^^^        ^^      ^^^^                                
               ^^^^^^^^^^^^      ^^^^^^^^^^^^^^^^      ^^      ^^^^                                
               ^^^^^^^^^^^^    ^^^^^^^^^^^^^^^^^^^^    ^^      ^^^^                                
               ^^^^^^^^^^^^    ^^^^^^^^^^^^^^^^^^^^    ^^      ^^^^    ^^^^^     ^^^    ^^^^^^     
               ^^^^^^^^^^^^   ^^^^^^^^^^^^^^^^^^^^^^   ^^      ^^^^   ^^^^^^^    ^^^   ^^^  ^^^    
               ^^^^^^^^^^^    ^^^^^^^^^^^^^^^^^^^^^^   ^       ^^^^  ^^^    ^^   ^^^   ^^    ^^    
               ^^^^^^^^^^^     ^^^^^^^^^^^^^^^^^^^^            ^^^^  ^^         ^^ ^^  ^^^^^       
               ^^^^^^^^^^      ^^^^^^^^^^^^^^^^^^^^        ^   ^^^^  ^^         ^^ ^^   ^^^^^^     
               ^^^^^^^^          ^^^^^^^^^^^^^^^^          ^   ^^^^  ^^        ^^^^^^^     ^^^^    
               ^^^^^^      ^^^     ^^^^^^^^^^^^     ^      ^   ^^^^  ^^^   ^^^ ^^^^^^^ ^^    ^^    
                         ^^^^^^                    ^^      ^   ^^^^   ^^^^^^^  ^^   ^^ ^^^  ^^^    
                      ^^^^^^^^^^^^             ^^^^^^      ^           ^^^^^  ^^     ^^ ^^^^^^     
               ^^^^^^^^^^^^^^^^^^^^^^^^^^^^^^^^^^^^^^^^^^^^^^^^^^^^                                
                 ^^^^^^^^^^^^^^^^^^^^^^^^^^^^^^^^^^^^^^^^^^^^^^^^                                  
                     ^^^^^^^^^^^^^^^^^^^^^^^^^^^^^^^^^^^^^^^^                                      
                        ^^^^^^^^^^^^^^^^^^^^^^^^^^^^^^^^^^                                         
                            ^^^^^^^^^^^^^^^^^^^^^^^^^^                                             
                               ^^^^^^^^^^^^^^^^^^^^                                                
                                   ^^^^^^^^^^^^                                                    
                                       ^^^^^^                                                      

                           Copyright, all rights, reserved:                                        
                         Permission is hereby granted to use                                       
                but not to reproduce or distribute any part of this                                
             program. The use is restricted to research purposes only.                             
                            Lund University Sweden, 2008.                                          
                                                                                                   
 For the author list and the recommended citation consult section 1.5 of the MOLCAS user's guide.  



   -------------------------------------------------------------------
  |                                                                   
  |   Project         = molcas
  |   Submitted from  = /scratch/phasan/76123
  |   Scratch area    = /scratch/phasan/76123/molcas.7651
  |   Save outputs to = /scratch/phasan/76123
  |                                                                   
  |   Scratch area is empty
  |                                                                   
  |                                                                   
   -------------------------------------------------------------------
 
 
()()()()()()()()()()()()()()()()()()()()()()()()()()()()()()()()()()()()()()()()()()()()()()()()()()
                                 MOLCAS executing module GATEWAY with 3800 MB of memory                                 
                                              at 14:22:39 Sun Feb 19 2012                                               
()()()()()()()()()()()()()()()()()()()()()()()()()()()()()()()()()()()()()()()()()()()()()()()()()()
 
 

                    --- Group Generators ---
                    Reflection in the yz-plane  
                    Reflection in the xz-plane  
                    Reflection in the xy-plane  
 
 
                    Character Table for D2h
 
                             E   s(yz) s(xz) C2(z) s(xy) C2(y) C2(x)   i  
                    ag       1     1     1     1     1     1     1     1  
                    b3u      1    -1     1    -1     1    -1     1    -1  x
                    b2u      1     1    -1    -1     1     1    -1    -1  y
                    b1g      1    -1    -1     1     1    -1    -1     1  xy, Rz
                    b1u      1     1     1     1    -1    -1    -1    -1  z
                    b2g      1    -1     1    -1    -1     1    -1     1  xz, Ry
                    b3g      1     1    -1    -1    -1    -1     1     1  yz, Rx
                    au       1    -1    -1     1    -1     1     1    -1  I
 
 Basis set label:C.6-31G.....                                                                    
 
 Valence basis set:
 ==================
 Associated Effective Charge  6.000000 au
 Associated Actual Charge     6.000000 au
 Nuclear Model: Point charge
 
 
  Shell  nPrim  nBasis  Cartesian Spherical Contaminant
    s      10       3        X                  
    p       4       2        X                  
 Basis set label:H.6-31G.....                                                                    
 
 Valence basis set:
 ==================
 Associated Effective Charge  1.000000 au
 Associated Actual Charge     1.000000 au
 Nuclear Model: Point charge
 
 
  Shell  nPrim  nBasis  Cartesian Spherical Contaminant
    s       4       2        X                  
 
                    ************************************************ 
                    **** Cartesian Coordinates / Bohr, Angstrom **** 
                    ************************************************ 
 
     Center  Label                x              y              z                     x              y              z
        1      C1             0.000000       1.356672       0.000000              0.000000       0.717920       0.000000
        2      C1             0.000000      -1.356672       0.000000              0.000000      -0.717920       0.000000
        3      C2             2.352350       2.658957       0.000000              1.244810       1.407059       0.000000
        4      C2            -2.352350       2.658957       0.000000             -1.244810       1.407059       0.000000
        5      C2             2.352350      -2.658957       0.000000              1.244810      -1.407059       0.000000
        6      C2            -2.352350      -2.658957       0.000000             -1.244810      -1.407059       0.000000
        7      C3             4.611321       1.340239       0.000000              2.440206       0.709224       0.000000
        8      C3            -4.611321       1.340239       0.000000             -2.440206       0.709224       0.000000
        9      C3             4.611321      -1.340239       0.000000              2.440206      -0.709224       0.000000
       10      C3            -4.611321      -1.340239       0.000000             -2.440206      -0.709224       0.000000
       11      H4             2.351224       4.733089       0.000000              1.244214       2.504643       0.000000
       12      H4            -2.351224       4.733089       0.000000             -1.244214       2.504643       0.000000
       13      H4             2.351224      -4.733089       0.000000              1.244214      -2.504643       0.000000
       14      H4            -2.351224      -4.733089       0.000000             -1.244214      -2.504643       0.000000
       15      H5             6.410561       2.368480       0.000000              3.392323       1.253346       0.000000
       16      H5            -6.410561       2.368480       0.000000             -3.392323       1.253346       0.000000
       17      H5             6.410561      -2.368480       0.000000              3.392323      -1.253346       0.000000
       18      H5            -6.410561      -2.368480       0.000000             -3.392323      -1.253346       0.000000
 
                    ************************************************* 
                    **** InterNuclear Distances / Bohr, Angstrom **** 
                    ************************************************* 
 
     Atom centers         Bohr        Angstrom
   15 H5      7 C3    2.072328        1.096629
   16 H5      8 C3  
   17 H5      9 C3  
   18 H5     10 C3  
   11 H4      3 C2    2.074133        1.097584
   12 H4      4 C2  
   13 H4      5 C2  
   14 H4      6 C2  
    7 C3      3 C2    2.615715        1.384177
    8 C3      4 C2  
    9 C3      5 C2  
   10 C3      6 C2  
    9 C3      7 C3    2.680478        1.418448
   10 C3      8 C3  
    3 C2      1 C1    2.688772        1.422837
    4 C2      1 C1  
    5 C2      2 C1  
    6 C2      2 C1  
    2 C1      1 C1    2.713345        1.435840
   15 H5      3 C2    4.068593        2.153007
   16 H5      4 C2  
   17 H5      5 C2  
   18 H5      6 C2  
   11 H4      7 C3    4.076699        2.157296
   12 H4      8 C3  
   13 H4      9 C3  
   14 H4     10 C3  
   11 H4      1 C1    4.114419        2.177257
   12 H4      1 C1  
   13 H4      2 C1  
   14 H4      2 C1  
   15 H5      9 C3    4.122119        2.181331
   16 H5     10 C3  
   17 H5      7 C3  
   18 H5      8 C3  
    7 C3      5 C2    4.593095        2.430561
    8 C3      6 C2  
    9 C3      3 C2  
   10 C3      4 C2  
    7 C3      1 C1    4.611350        2.440222
    8 C3      1 C1  
    9 C3      2 C1  
   10 C3      2 C1  
    3 C2      2 C1    4.653905        2.462740
    4 C2      2 C1  
    5 C2      1 C1  
    6 C2      1 C1  
   15 H5     11 H4    4.697828        2.485983
   16 H5     12 H4  
   17 H5     13 H4  
   18 H5     14 H4  
   12 H4     11 H4    4.702449        2.488429
   14 H4     13 H4  
    4 C2      3 C2    4.704700        2.489620
    6 C2      5 C2  
   17 H5     15 H5    4.736961        2.506692
   18 H5     16 H5  
   11 H4      4 C2    5.140587        2.720282
   12 H4      3 C2  
   13 H4      6 C2  
   14 H4      5 C2  
    5 C2      3 C2    5.317914        2.814119
    6 C2      4 C2  
    7 C3      2 C1    5.342061        2.826897
    8 C3      2 C1  
    9 C3      1 C1  
   10 C3      1 C1  
 
                    Total mass (a) : 128.06260
 
                    Center of mass 
                          X          Y          Z   
                       0.00000    0.00000    0.00000
 
                    Reference system based on center of mass
                    Coordinates and Masses of Atoms, in au and a
                          X          Y          Z        Mass
                       0.00000    1.35667    0.00000   12.00000
                       0.00000   -1.35667    0.00000   12.00000
                       2.35235    2.65896    0.00000   12.00000
                      -2.35235    2.65896    0.00000   12.00000
                       2.35235   -2.65896    0.00000   12.00000
                      -2.35235   -2.65896    0.00000   12.00000
                       4.61132    1.34024    0.00000   12.00000
                      -4.61132    1.34024    0.00000   12.00000
                       4.61132   -1.34024    0.00000   12.00000
                      -4.61132   -1.34024    0.00000   12.00000
                       2.35122    4.73309    0.00000    1.00782
                      -2.35122    4.73309    0.00000    1.00782
                       2.35122   -4.73309    0.00000    1.00782
                      -2.35122   -4.73309    0.00000    1.00782
                       6.41056    2.36848    0.00000    1.00782
                      -6.41056    2.36848    0.00000    1.00782
                       6.41056   -2.36848    0.00000    1.00782
                      -6.41056   -2.36848    0.00000    1.00782
 
                    The Moment of Inertia Tensor / au
                                     X          Y        Z     
                    X            0.1062E+07
                    Y            -.7276E-11 0.2687E+07
                    Z            0.0000E+00 0.0000E+00 0.3750E+07
 
                    The Principal Axis and Moment of Inertia (au)
                    Eigenvalues :0.3750E+07 0.2687E+07 0.1062E+07
                                     X'         Y'       Z'    
                    Eigenvectors:
                    X            0.0000E+00 0.0000E+00 0.1000E+01
                    Y            0.0000E+00 0.1000E+01 0.0000E+00
                    Z            0.1000E+01 0.0000E+00 0.0000E+00
 
                    The Rotational Constants
                            (cm-1)            (GHz)
                              0.029            0.877
                              0.041            1.224
                              0.103            3.097
 
 
                    *******************************************
                    *                                         *
                    * R I G I D - R O T O R   A N A L Y S I S *
                    *                                         *
                    *******************************************
 
                    j(Max):  5
 
                    Rotor Type: Linear Rotor            
                    Asymmetry parameter: -0.688
                    Prolate = -1
                    Oblate  =  1
 
 
                    Rotational energies / cm-1
 
                    E(J= 0,kappa= 0) =        0.000
 
                    E(J= 1,kappa=-1) =        0.070
                    E(J= 1,kappa= 0) =        0.133
                    E(J= 1,kappa= 1) =        0.144
 
                    E(J= 2,kappa=-2) =        0.209
                    E(J= 2,kappa=-1) =        0.261
                    E(J= 2,kappa= 0) =        0.296
                    E(J= 2,kappa= 1) =        0.483
                    E(J= 2,kappa= 2) =        0.485
 
                    E(J= 3,kappa=-3) =        0.413
                    E(J= 3,kappa=-2) =        0.453
                    E(J= 3,kappa=-1) =        0.523
                    E(J= 3,kappa= 0) =        0.694
                    E(J= 3,kappa= 1) =        0.701
                    E(J= 3,kappa= 2) =        1.036
                    E(J= 3,kappa= 3) =        1.036
 
                    E(J= 4,kappa=-4) =        0.680
                    E(J= 4,kappa=-3) =        0.708
                    E(J= 4,kappa=-2) =        0.823
                    E(J= 4,kappa=-1) =        0.973
                    E(J= 4,kappa= 0) =        0.993
                    E(J= 4,kappa= 1) =        1.319
                    E(J= 4,kappa= 2) =        1.320
                    E(J= 4,kappa= 3) =        1.794
                    E(J= 4,kappa= 4) =        1.794
 
                    E(J= 5,kappa=-5) =        1.007
                    E(J= 5,kappa=-4) =        1.024
                    E(J= 5,kappa=-3) =        1.195
                    E(J= 5,kappa=-2) =        1.320
                    E(J= 5,kappa=-1) =        1.365
                    E(J= 5,kappa= 0) =        1.673
                    E(J= 5,kappa= 1) =        1.676
                    E(J= 5,kappa= 2) =        2.148
                    E(J= 5,kappa= 3) =        2.148
                    E(J= 5,kappa= 4) =        2.760
                    E(J= 5,kappa= 5) =        2.760
 
 
  Basis set specifications :
  Symmetry species            ag  b3u b2u b1g b1u b2g b3g au 
  Basis functions              23  20  23  20   6   4   6   4
 
 
            Nuclear Potential Energy            455.75483801 au
 
--- Stop Module: gateway at Sun Feb 19 14:22:40 2012 /rc=0 ---
 
 
()()()()()()()()()()()()()()()()()()()()()()()()()()()()()()()()()()()()()()()()()()()()()()()()()()
                                  MOLCAS executing module SEWARD with 3800 MB of memory                                 
                                              at 14:22:42 Sun Feb 19 2012                                               
()()()()()()()()()()()()()()()()()()()()()()()()()()()()()()()()()()()()()()()()()()()()()()()()()()
 
 
               SEWARD will generate:
                  Multipole Moment integrals up to order  2
                  Kinetic Energy integrals
                  Nuclear Attraction integrals (point charge)
                  One-Electron Hamiltonian integrals
                  Two-Electron Repulsion integrals
 
                   Integrals are discarded if absolute value <: 0.10E-12
                   Integral cutoff threshold is set to       <: 0.10E-11
 
                    Unitary symmetry adaptation
 
 
  Basis set specifications :
  Symmetry species            ag  b3u b2u b1g b1u b2g b3g au 
  Basis functions              23  20  23  20   6   4   6   4
 
 
            Nuclear Potential Energy            455.75483801 au
 
 
  Molden_Interface: W A R N I N G !!!!
 
  Calculation contains more than                   100  basis functions!
  Since the Molden files are verbose no file will be printed.
  To override type "> export MOLCAS_MOLDEN=ON" in the top of the input file!
 
--- Stop Module: seward at Sun Feb 19 14:22:46 2012 /rc=0 ---
 
 
()()()()()()()()()()()()()()()()()()()()()()()()()()()()()()()()()()()()()()()()()()()()()()()()()()
                                   MOLCAS executing module SCF with 3800 MB of memory                                   
                                              at 14:22:48 Sun Feb 19 2012                                               
()()()()()()()()()()()()()()()()()()()()()()()()()()()()()()()()()()()()()()()()()()()()()()()()()()
 
 
      Header of the integral files:
                                                                              
       Integrals generated by seward 4.2.0  , Sun Feb 19 14:22:43 2012        
 
 
 
      Cartesian coordinates in Angstrom:
      -----------------------------------------
      No.  Label     X         Y         Z     
      -----------------------------------------
       1   C1       0.00000   0.71792   0.00000
       2   C2       1.24481   1.40706   0.00000
       3   C3       2.44021   0.70922   0.00000
       4   H4       1.24421   2.50464   0.00000
       5   H5       3.39232   1.25335   0.00000
       6   C1       0.00000  -0.71792   0.00000
       7   C2      -1.24481   1.40706   0.00000
       8   C2       1.24481  -1.40706   0.00000
       9   C2      -1.24481  -1.40706   0.00000
      10   C3      -2.44021   0.70922   0.00000
      11   C3       2.44021  -0.70922   0.00000
      12   C3      -2.44021  -0.70922   0.00000
      13   H4      -1.24421   2.50464   0.00000
      14   H4       1.24421  -2.50464   0.00000
      15   H4      -1.24421  -2.50464   0.00000
      16   H5      -3.39232   1.25335   0.00000
      17   H5       3.39232  -1.25335   0.00000
      18   H5      -3.39232  -1.25335   0.00000
      -----------------------------------------
      Nuclear repulsion energy =  455.754838
 
 
      Orbital specifications :
      Symmetry species               1   2   3   4   5   6   7   8
                                    ag b3u b2u b1g b1u b2g b3g  au
      Frozen orbitals                0   0   0   0   0   0   0   0
      Occupied orbitals              9   7   7   6   2   1   1   1
      Secondary orbitals            14  13  16  14   4   3   5   3
      Deleted orbitals               0   0   0   0   0   0   0   0
      Total number of orbitals      23  20  23  20   6   4   6   4
      Number of basis functions     23  20  23  20   6   4   6   4
 
      Molecular charge                           0.000
 
      SCF Algorithm: Conventional
      Minimized density differences are used
      Number of density matrices in core              200
      Maximum number of NDDO SCF iterations           200
      Maximum number of HF  SCF iterations            200
      Threshold for SCF energy change            0.10E-08
      Threshold for density matrix               0.10E-03
      Threshold for Fock matrix                  0.15E-03
      Threshold for linear dependence            0.10E-04
      Threshold at which DIIS is turned on       0.15E+00
      Threshold at which QNR/C2DIIS is turned on 0.15E+00
      Threshold for Norm(delta) (QNR/C2DIIS)     0.20E-04
      DIIS extrapolation of the SCF procedure
      All orbitals punched on: SCFORB
 
      Input vectors read from INPORB
      Orbital file label: *Guess orbitals                         
 
 
                                   SCF        iterations: Energy and convergence statistics
 
Iter     Tot. SCF       One-electron     Two-electron   Energy   Max Dij or   Max Fij   DNorm      TNorm     AccCon    Time
           Energy          Energy          Energy       Change   Delta Norm     
                                      in Sec.
   1   -382.42045350  -1405.77257229    567.59728079  0.00E+00   0.23E+00*  0.19E+00*   0.88E+01   0.22E+03   NoneDa    0.
   2   -383.14756147  -1424.95699848    586.05459900 -0.73E+00*  0.13E+00*  0.73E-01*   0.26E+01   0.81E+01   Damp      0.
   3   -383.20831605  -1418.82483126    579.86167720 -0.61E-01*  0.78E-01*  0.73E-01*   0.11E+01   0.11E+01   QNRc2D    0.
   4   -383.21676910  -1420.52734342    581.55573631 -0.85E-02*  0.15E-01*  0.38E-02*   0.28E+00   0.11E+00   QNRc2D    0.
   5   -383.21722478  -1420.60158969    581.62952691 -0.46E-03*  0.61E-02*  0.21E-02*   0.65E-01   0.53E-01   QNRc2D    0.
   6   -383.21728856  -1420.53006872    581.55794215 -0.64E-04*  0.12E-02*  0.37E-03*   0.18E-01   0.12E-01   QNRc2D    0.
   7   -383.21729146  -1420.53269449    581.56056503 -0.29E-05*  0.65E-03*  0.16E-03*   0.44E-02   0.21E-02   QNRc2D    0.
   8   -383.21729197  -1420.53683132    581.56470134 -0.52E-06*  0.32E-03*  0.59E-04    0.20E-02   0.16E-02   QNRc2D    0.
   9   -383.21729205  -1420.53558545    581.56345540 -0.72E-07*  0.29E-04*  0.61E-05    0.52E-03   0.37E-03   QNRc2D    0.
  10   -383.21729205  -1420.53548907    581.56335901 -0.11E-08*  0.32E-05   0.55E-06    0.77E-04   0.14E-03   QNRc2D    0.
  11   -383.21729205  -1420.53548373    581.56335367 -0.19E-10   0.10E-05   0.13E-06    0.90E-05   0.13E-04   QNRc2D    0.
 
 Convergence after 11 Macro Iterations and  1 additional LS Iterations...
 
 
 *****************************************************************************************************************************
 *                                                                                                                           *
 *                                             SCF/KS-DFT Program, Final results                                             *
 *                                                    Molcas version 7.4                                                     *
 *                                                                                                                           *
 *                                                                                                                           *
 *                                                       Final Results                                                       *
 *                                                                                                                           *
 *****************************************************************************************************************************
 
      Total SCF energy                               -383.2172920479
      One-electron energy                           -1420.5354837260
      Two-electron energy                             581.5633536731
      Nuclear repulsion energy                        455.7548380050
      Kinetic energy (interpolated)                   383.0503225221
      Virial theorem                                    1.0004358945
      Total spin, S(S+1)                                0.0000000000
      Total spin, S                                     0.0000000000
      Max non-diagonal density matrix element           0.0000000000
      Max non-diagonal Fock matrix element              0.0000001306
 
      All orbitals with orbital energies smaller then  E(LUMO)+0.5 are printed
 
 
      Molecular orbitals:
      -------------------
 
      Title:SCF orbitals                                                                    
 
      LEGEND
      =================================================================================================================
      A basis set label has the structure "nl+m" or "nl-m" where n is the principle quantumnumber for atomic basis
      functions (a star, "*", denotes a primitive, diffuse or a polarization function), l denotes the angular quantum, 
      and m the magnetic quantum number. The basis functions are normally real Spherical harmonics. For Cartesian type 
      basis functions we use the notation "ijk" to denote the power of the x, y, and z component in the radial part.
      For p-functions we always use the notation px, py, and pz.

      Molecular orbitals for symmetry species 1: ag 
 
          Orbital        1         2         3         4         5         6         7         8         9        10
          Energy    -11.2517  -11.2446  -11.2434   -1.1753   -1.0070   -0.8081   -0.6737   -0.6090   -0.4699    0.2334
          Occ. No.    2.0000    2.0000    2.0000    2.0000    2.0000    2.0000    2.0000    2.0000    2.0000    0.0000
 
        1 C1  1s      0.9919   -0.0666   -0.0625   -0.1463   -0.1323    0.0746    0.0408   -0.0251   -0.0007    0.0296
        2 C1  2s      0.0243   -0.0026   -0.0025    0.2930    0.2698   -0.1532   -0.0867    0.0528    0.0020   -0.0540
        3 C1  *s     -0.0138    0.0044    0.0089    0.1454    0.2004   -0.1449   -0.1060    0.0896    0.0227   -0.1924
        4 C1  2py     0.0002    0.0001   -0.0001   -0.0344   -0.0569    0.2819   -0.1351   -0.3377    0.3845    0.0104
        5 C1  *py    -0.0023    0.0001    0.0018   -0.0186   -0.0111    0.0595   -0.0510   -0.1072    0.2174    0.1514
        6 C2  1s      0.0907    0.6875    0.7152   -0.1358   -0.0045   -0.1288   -0.0328    0.0055   -0.0209    0.0444
        7 C2  2s      0.0010    0.0164    0.0187    0.2675    0.0110    0.2627    0.0675   -0.0118    0.0499   -0.0392
        8 C2  *s      0.0057   -0.0077   -0.0185    0.1700    0.0043    0.2549    0.0658   -0.0140    0.0293   -0.8301
        9 C2  2px     0.0003   -0.0002    0.0002   -0.0315   -0.2006    0.0260    0.2850    0.2183   -0.0825   -0.0697
       10 C2  *px    -0.0031    0.0007   -0.0001   -0.0172   -0.0274   -0.0095    0.0858    0.0980   -0.0019   -0.0040
       11 C2  2py     0.0002   -0.0001   -0.0004   -0.0886    0.0033    0.1893   -0.1700    0.0684   -0.3322   -0.2186
       12 C2  *py    -0.0016    0.0008    0.0043   -0.0114    0.0104    0.0892   -0.0680    0.0227   -0.2323   -0.7445
       13 C3  1s      0.0046    0.7174   -0.6909   -0.1112    0.1799    0.0405    0.0148    0.0140    0.0040    0.0602
       14 C3  2s     -0.0001    0.0167   -0.0176    0.2195   -0.3625   -0.0821   -0.0270   -0.0364   -0.0077   -0.0633
       15 C3  *s      0.0002   -0.0043    0.0121    0.1332   -0.2661   -0.0611   -0.0683   -0.0304   -0.0304   -1.0417
       16 C3  2px     0.0002   -0.0001    0.0004   -0.0765   -0.0070   -0.0857   -0.4194    0.1215   -0.0041   -0.1948
       17 C3  *px    -0.0001   -0.0009   -0.0038   -0.0068   -0.0106   -0.0284   -0.1511    0.0661    0.0474   -0.4884
       18 C3  2py     0.0000    0.0001    0.0001   -0.0312    0.0995    0.1966    0.0951    0.4434    0.3222   -0.0747
       19 C3  *py     0.0003   -0.0003    0.0007    0.0005    0.0087    0.0445    0.0140    0.1561    0.1582   -0.2816
       20 H4  1s     -0.0002   -0.0003   -0.0001    0.0514    0.0040    0.2019   -0.0611    0.0360   -0.2492    0.0313
       21 H4  *s      0.0003    0.0014    0.0008    0.0056   -0.0028    0.0844   -0.0408    0.0316   -0.2169    1.3452
       22 H5  1s      0.0000   -0.0003    0.0003    0.0389   -0.1083   -0.0253   -0.1910    0.1821    0.1204    0.0752
       23 H5  *s      0.0002    0.0019   -0.0007    0.0020   -0.0246   -0.0076   -0.1177    0.1325    0.0939    1.4177
 
          Orbital       11        12        13
          Energy      0.3075    0.4560    0.4960
          Occ. No.    0.0000    0.0000    0.0000
 
        1 C1  1s      0.0168   -0.0495   -0.1266
        2 C1  2s     -0.0641    0.0699    0.0230
        3 C1  *s      0.3640    0.5410    5.0711
        4 C1  2py    -0.0620    0.0014    0.2887
        5 C1  *py    -0.1133   -0.1597    2.2064
        6 C2  1s     -0.0869    0.1230    0.0677
        7 C2  2s      0.0980   -0.1590    0.0122
        8 C2  *s      1.5653   -2.5790   -2.3553
        9 C2  2px     0.0187   -0.0849    0.0555
       10 C2  *px     0.5804   -1.3489    3.6209
       11 C2  2py     0.1783    0.2502    0.0659
       12 C2  *py     1.1016    1.7370    0.0862
       13 C3  1s      0.0724   -0.0817    0.0042
       14 C3  2s     -0.0772    0.0998    0.0762
       15 C3  *s     -1.6914    2.3723   -1.9774
       16 C3  2px    -0.0973   -0.2449    0.0268
       17 C3  *px    -0.4939   -1.9220    0.1739
       18 C3  2py    -0.1663   -0.0272   -0.2156
       19 C3  *py    -0.9867    0.8685   -0.7603
       20 H4  1s      0.0461   -0.0502   -0.0482
       21 H4  *s     -1.7604   -0.8956    0.5776
       22 H5  1s     -0.0120    0.0428   -0.1756
       23 H5  *s      1.6365    0.7257    0.4320

      Molecular orbitals for symmetry species 2: b3u
 
          Orbital        1         2         3         4         5         6         7         8         9        10
          Energy    -11.2447  -11.2434   -1.1080   -0.8512   -0.6958   -0.5806   -0.5188    0.2538    0.3323    0.5075
          Occ. No.    2.0000    2.0000    2.0000    2.0000    2.0000    2.0000    2.0000    0.0000    0.0000    0.0000
 
        1 C1  2px     0.0005    0.0001    0.1116    0.2268    0.1884    0.3103    0.1388    0.0000    0.1903   -0.0387
        2 C1  *px    -0.0038   -0.0038    0.0378    0.0780    0.0674    0.1113    0.0295    0.1304    0.3928    0.2228
        3 C2  1s     -0.7121   -0.6966   -0.1273   -0.1431    0.0433   -0.0164    0.0093    0.0680    0.1127    0.0742
        4 C2  2s     -0.0173   -0.0183    0.2540    0.2932   -0.0866    0.0319   -0.0185   -0.0956   -0.1492   -0.0042
        5 C2  *s      0.0102    0.0179    0.1370    0.2336   -0.1290    0.0796   -0.0199   -0.8998   -1.8691   -3.0928
        6 C2  2px     0.0003   -0.0002    0.0770   -0.0860   -0.1374   -0.4170    0.0582    0.0382    0.0643   -0.4369
        7 C2  *px    -0.0023    0.0014    0.0092   -0.0051   -0.0321   -0.1189    0.0224    0.3568    0.2503   -2.1924
        8 C2  2py     0.0000    0.0004   -0.0851   -0.0070   -0.3044    0.0649   -0.2920   -0.1032   -0.1301    0.1226
        9 C2  *py    -0.0013   -0.0047    0.0111    0.0380   -0.1281    0.0074   -0.2070   -0.3095   -0.9028    1.4620
       10 C3  1s     -0.6962    0.7123   -0.1829    0.1164   -0.0007    0.0248    0.0136    0.0660   -0.0450   -0.0899
       11 C3  2s     -0.0163    0.0179    0.3626   -0.2399    0.0039   -0.0566   -0.0338   -0.0551    0.0265    0.0346
       12 C3  *s      0.0048   -0.0130    0.2420   -0.2193   -0.0273   -0.0729   -0.0393   -1.3349    1.0031    3.4110
       13 C3  2px     0.0001   -0.0003   -0.0846   -0.1959   -0.1477    0.3813    0.0593   -0.2271    0.1641   -0.0965
       14 C3  *px     0.0005    0.0035   -0.0162   -0.0671   -0.0603    0.1634    0.0725   -0.6489    0.5404   -2.0665
       15 C3  2py    -0.0001   -0.0001   -0.0641    0.1878   -0.2885   -0.1209    0.4736   -0.1328    0.0851   -0.0313
       16 C3  *py     0.0005   -0.0013   -0.0104    0.0196   -0.0959   -0.0473    0.2133   -0.4795    0.6621    1.4500
       17 H4  1s      0.0002    0.0002    0.0503    0.1145   -0.2028    0.0607   -0.2190    0.0716    0.0577    0.0104
       18 H4  *s     -0.0014   -0.0007   -0.0010    0.0284   -0.1107    0.0468   -0.1459    1.0337    1.9058   -0.4086
       19 H5  1s      0.0003   -0.0002    0.0794   -0.1295   -0.1432    0.1440    0.1879    0.0481    0.0015    0.1643
       20 H5  *s     -0.0017    0.0011    0.0148   -0.0432   -0.0869    0.1127    0.1458    1.7192   -1.3943    0.2384
 
          Orbital       11
          Energy      0.5428
          Occ. No.    0.0000
 
        1 C1  2px    -0.3279
        2 C1  *px    -3.0206
        3 C2  1s     -0.0815
        4 C2  2s      0.0631
        5 C2  *s      2.7744
        6 C2  2px    -0.2235
        7 C2  *px    -1.8478
        8 C2  2py    -0.2956
        9 C2  *py    -3.0698
       10 C3  1s     -0.0072
       11 C3  2s      0.0671
       12 C3  *s     -0.1605
       13 C3  2px    -0.1218
       14 C3  *px     0.8878
       15 C3  2py     0.2024
       16 C3  *py     0.2918
       17 H4  1s     -0.0381
       18 H4  *s      2.0971
       19 H5  1s      0.0805
       20 H5  *s     -0.5431

      Molecular orbitals for symmetry species 3: b2u
 
          Orbital        1         2         3         4         5         6         7         8         9        10
          Energy    -11.2507  -11.2443  -11.2427   -1.0486   -0.8330   -0.6178   -0.5576    0.2597    0.3183    0.4117
          Occ. No.    2.0000    2.0000    2.0000    2.0000    2.0000    2.0000    2.0000    0.0000    0.0000    0.0000
 
        1 C1  1s      0.9906   -0.1001    0.0384    0.1100   -0.1040    0.0828    0.0292   -0.0199    0.0211    0.1387
        2 C1  2s      0.0263   -0.0041    0.0021   -0.2248    0.2122   -0.1817   -0.0647    0.0967    0.0458   -0.2128
        3 C1  *s     -0.0302    0.0179   -0.0165   -0.1375    0.2316   -0.0782    0.0016   -0.8474   -1.6707   -2.0054
        4 C1  2py    -0.0004   -0.0001    0.0001   -0.1310    0.1417   -0.0622   -0.0728   -0.1064    0.0463    0.0071
        5 C1  *py     0.0072   -0.0051    0.0013   -0.0296    0.0064   -0.1331   -0.0467    0.6708    0.1413   -1.4457
        6 C2  1s      0.1062    0.8896   -0.4358    0.1809    0.0088   -0.0370   -0.0565    0.0638    0.0408   -0.0456
        7 C2  2s      0.0013    0.0225   -0.0124   -0.3628   -0.0149    0.0748    0.1276   -0.0801   -0.1344    0.0841
        8 C2  *s      0.0089   -0.0171    0.0226   -0.2604   -0.0507    0.0455    0.0824   -1.1238    0.3439    0.5400
        9 C2  2px     0.0002    0.0000    0.0000    0.0447   -0.3389    0.0699    0.2423    0.0003   -0.0297   -0.0736
       10 C2  *px    -0.0013   -0.0009    0.0006    0.0031   -0.0892   -0.0400    0.1025    0.1689   -0.7275   -2.2978
       11 C2  2py     0.0001   -0.0004    0.0003    0.0464    0.0105    0.4102   -0.1738   -0.2987    0.0015   -0.0973
       12 C2  *py    -0.0051    0.0063   -0.0090    0.0051    0.0338    0.2787   -0.0169   -1.6496   -0.9146    0.8464
       13 C3  1s      0.0095    0.4369    0.8955    0.0776    0.1418    0.0584    0.0221    0.0067   -0.1278   -0.0795
       14 C3  2s      0.0005    0.0103    0.0242   -0.1556   -0.2901   -0.1303   -0.0451    0.0452    0.2139    0.0139
       15 C3  *s     -0.0055    0.0020   -0.0335   -0.1058   -0.2281   -0.0100   -0.0127   -0.9867    1.4581    3.3065
       16 C3  2px     0.0001    0.0000   -0.0005    0.0842    0.0240   -0.0028   -0.4302   -0.0847    0.1353   -0.1524
       17 C3  *px     0.0029   -0.0045    0.0101   -0.0017   -0.0554   -0.1244   -0.2603    0.0986    1.6568   -1.6694
       18 C3  2py    -0.0001   -0.0003   -0.0003   -0.0913   -0.1852   -0.0399   -0.0342   -0.0875    0.0621   -0.1812
       19 C3  *py     0.0015    0.0011    0.0074   -0.0090   -0.0520   -0.0406   -0.0959    0.1738    0.8595   -1.4641
       20 H4  1s     -0.0001   -0.0005    0.0002   -0.1041   -0.0033    0.3000   -0.0460    0.0358   -0.0042   -0.0037
       21 H4  *s      0.0011    0.0002    0.0008   -0.0252   -0.0110    0.1774   -0.0621    2.2805    0.7432   -0.6559
       22 H5  1s     -0.0001   -0.0001   -0.0004   -0.0409   -0.1503   -0.0816   -0.2924    0.0064   -0.0207    0.0577
       23 H5  *s     -0.0006    0.0016   -0.0006   -0.0054   -0.0465   -0.0135   -0.1896    0.3748   -2.5285    1.1990
 
          Orbital       11
          Energy      0.4942
          Occ. No.    0.0000
 
        1 C1  1s      0.0425
        2 C1  2s     -0.0076
        3 C1  *s     -1.7415
        4 C1  2py     0.3531
        5 C1  *py     2.0157
        6 C2  1s      0.0929
        7 C2  2s     -0.0607
        8 C2  *s     -3.1025
        9 C2  2px     0.0341
       10 C2  *px    -0.8972
       11 C2  2py     0.0624
       12 C2  *py     0.2446
       13 C3  1s     -0.0034
       14 C3  2s      0.0549
       15 C3  *s     -0.5251
       16 C3  2px    -0.2683
       17 C3  *px    -1.9853
       18 C3  2py     0.2709
       19 C3  *py     2.2381
       20 H4  1s     -0.2197
       21 H4  *s      0.2611
       22 H5  1s     -0.1113
       23 H5  *s      0.5836

      Molecular orbitals for symmetry species 4: b1g
 
          Orbital        1         2         3         4         5         6         7         8         9
          Energy    -11.2444  -11.2427   -0.9786   -0.7012   -0.5794   -0.4809    0.3114    0.3522    0.4861
          Occ. No.    2.0000    2.0000    2.0000    2.0000    2.0000    2.0000    0.0000    0.0000    0.0000
 
        1 C1  2px     0.0002   -0.0002    0.1314   -0.2162   -0.2076   -0.3088    0.0383    0.1125    0.2600
        2 C1  *px    -0.0029    0.0128    0.0995   -0.2553    0.0501   -0.1475    0.8232   -1.6336    2.2571
        3 C2  1s     -0.9035    0.4198   -0.1804    0.0998    0.0051    0.0064    0.0448    0.0727    0.0332
        4 C2  2s     -0.0224    0.0119    0.3681   -0.2196   -0.0129   -0.0129    0.0205   -0.1863    0.0366
        5 C2  *s      0.0129   -0.0289    0.2047    0.0027   -0.1159   -0.0642   -2.0168    0.8781   -2.3047
        6 C2  2px     0.0002    0.0002    0.0942    0.2331    0.0207    0.4432    0.0706   -0.0612   -0.0133
        7 C2  *px    -0.0010   -0.0012    0.0237    0.0276    0.0349    0.1630    0.4051   -0.2135    0.9624
        8 C2  2py     0.0003   -0.0003   -0.0476   -0.0444    0.4667    0.0316   -0.2168   -0.2138    0.0237
        9 C2  *py    -0.0014    0.0119    0.0583   -0.1829    0.2891    0.0570   -0.0704   -2.5954    0.5464
       10 C3  1s     -0.4194   -0.9039   -0.1232   -0.1211    0.0305   -0.0055    0.0846   -0.0692    0.1086
       11 C3  2s     -0.0101   -0.0245    0.2441    0.2577   -0.0714    0.0122   -0.1048    0.2074   -0.0968
       12 C3  *s      0.0038    0.0362    0.2536    0.1079    0.0082    0.0511   -1.2856   -0.7137   -2.9469
       13 C3  2px    -0.0001    0.0005   -0.1086    0.1459    0.1838   -0.3707   -0.2066    0.0802    0.1164
       14 C3  *px     0.0010   -0.0115   -0.0276    0.1866    0.0122   -0.2617   -1.5609    1.9892    0.2703
       15 C3  2py     0.0004    0.0003    0.1496    0.1593    0.0024    0.0316   -0.0818   -0.0308    0.3000
       16 C3  *py    -0.0018   -0.0070   -0.0018    0.1451   -0.0200   -0.0297   -0.2647    1.0068    3.0205
       17 H4  1s      0.0002   -0.0003    0.1086   -0.1233    0.2864    0.0147    0.0018    0.0739   -0.1467
       18 H4  *s     -0.0018   -0.0013    0.0078   -0.0126    0.1841    0.0022    1.1118    2.5905   -0.1461
       19 H5  1s      0.0002    0.0004    0.0799    0.2306    0.0661   -0.2334    0.0010   -0.0220   -0.0555
       20 H5  *s     -0.0008    0.0007    0.0258    0.0818    0.0731   -0.1758    2.1264   -1.8804   -0.9424

      Molecular orbitals for symmetry species 5: b1u
 
          Orbital        1         2         3
          Energy     -0.5301   -0.3174    0.1883
          Occ. No.    2.0000    2.0000    0.0000
 
        1 C1  2pz    -0.3181    0.3585    0.2878
        2 C1  *pz    -0.1977    0.3082    0.5633
        3 C2  2pz    -0.3106   -0.0050   -0.4204
        4 C2  *pz    -0.1896   -0.0065   -0.9358
        5 C3  2pz    -0.2573   -0.4260    0.1777
        6 C3  *pz    -0.1595   -0.3708    0.4344

      Molecular orbitals for symmetry species 6: b2g
 
          Orbital        1         2
          Energy     -0.4435    0.0931
          Occ. No.    2.0000    0.0000
 
        1 C2  2pz    -0.2901   -0.4638
        2 C2  *pz    -0.2148   -0.7254
        3 C3  2pz    -0.4396    0.3096
        4 C3  *pz    -0.3146    0.4737

      Molecular orbitals for symmetry species 7: b3g
 
          Orbital        1         2         3
          Energy     -0.3829    0.1287    0.4090
          Occ. No.    2.0000    0.0000    0.0000
 
        1 C1  2pz     0.2550    0.3598    0.4794
        2 C1  *pz     0.1879    0.5992    1.2081
        3 C2  2pz     0.4311    0.0008   -0.3001
        4 C2  *pz     0.3469    0.0187   -1.2009
        5 C3  2pz     0.2134   -0.4350    0.2841
        6 C3  *pz     0.1689   -0.7932    0.9344

      Molecular orbitals for symmetry species 8: au 
 
          Orbital        1         2
          Energy     -0.2834    0.2813
          Occ. No.    2.0000    0.0000
 
        1 C2  2pz     0.4693   -0.3452
        2 C2  *pz     0.4285   -0.7200
        3 C3  2pz     0.3068    0.4777
        4 C3  *pz     0.3037    1.1304
 
 
      Mulliken charges per center and basis function type
      ---------------------------------------------------
 
               C1      C2      C3      H4      H5  
      1s     1.9978  1.9977  1.9977  0.5297  0.5306
      2s     0.6997  0.6974  0.6947  0.0000  0.0000
      2px    0.7538  0.7531  0.7417  0.0000  0.0000
      2pz    0.5291  0.5232  0.5206  0.0000  0.0000
      2py    0.7423  0.7272  0.7419  0.0000  0.0000
      *s     0.4372  0.4490  0.4961  0.2595  0.2665
      *px    0.2796  0.1553  0.3277  0.0000  0.0000
      *pz    0.4581  0.4793  0.4833  0.0000  0.0000
      *py    0.1639  0.3920  0.2050  0.0000  0.0000
      Total  6.0614  6.1743  6.2087  0.7892  0.7971
 
      N-E   -0.0614 -0.1743 -0.2087  0.2108  0.2029
 
      Total electronic charge=   68.000000
 
      Total            charge=    0.000000
Dipole Moment (Debye):                                                          
Origin of the operator (Ang)=    0.0000    0.0000    0.0000
               X=    0.0000               Y=    0.0000               Z=    0.0000           Total=    0.0000
Quadrupole Moment (Debye*Ang):                                                  
Origin of the operator (Ang)=    0.0000    0.0000    0.0000
              XX=  -51.3134              XY=    0.0000              XZ=    0.0000              YY=  -51.3180
              YZ=    0.0000              ZZ=  -65.4186
In traceless form (Debye*Ang)
              XX=    7.0549              XY=    0.0000              XZ=    0.0000              YY=    7.0481
              YZ=    0.0000              ZZ=  -14.1029
--- Stop Module: scf at Sun Feb 19 14:22:50 2012 /rc=0 ---

     Happy landing!

--- Stop Module: auto at Sun Feb 19 14:22:50 2012 /rc=0 ---
