# all radii in Angstroem
# optimized radii
radius  all 1 1.3    # H
radius  all 6 2.0    # C
radius  all 8 1.72   # O
radius  all 7 1.83   # N
radius  all 9 1.72   # F
radius  all 17  2.05 # Cl
radius  all 35 2.16  # Br
radius  all 53 2.32  # I
radius  all 16 2.16  # S
# radii R_bondi * 1.17
radius all  14 2.457 # Si
radius all  15 2.106 # P
radius all  34 2.223 # Se
#
# default values for parameter
#
nppa  = 1082
nspa  = 92
disex = 10.0
routf = 0.85
rsolv = 1.3 # in Angstroem
cavity = 1 # 1 -> closed; 2-> open
phsran = 0.0
ampran = 0.00001
refraction_index = 1.33
#
# if epsilon is not set here, it will be treated as 
# infinit (default).
# For non default settings, give epsilon as follows
# epsilon   = 80.0 
# if an item is defined twice, the last item is used!
